{
    "host": {
        "hostname": "olivb-21.cern.ch",
        "ip": "128.142.41.53",
        "UID": "not_defined",
        "tags": {
            "cloud": "Suite CI",
            "vo": "Some VM",
            "other_tag": "Some text"
        },
        "SW": {
            "python_version": "3.6.8",
            "os_version": "CentOS Linux release 7.8.2003 (Core)",
            "kernel_version": "3.10.0-1127.18.2.el7.x86_64",
            "gcc_version": "gcc (GCC) 4.8.5 20150623 (Red Hat 4.8.5-39)",
            "glibc_version": "2.17-307.el7.1"
        },
        "HW": {
            "CPU": {
                "Architecture": "x86_64",
                "CPU_Model": "Intel(R) Xeon(R) CPU E5-2695 v2 @ 2.40GHz",
                "CPU_Family": "6",
                "CPU": "48",
                "Online_CPUs_list": "0-47",
                "Threads_per_core": "2",
                "Cores_per_socket": "12",
                "Sockets": "2",
                "Vendor_ID": "GenuineIntel",
                "Stepping": "4",
                "CPU_Max_Speed_MHz": "3200.0000",
                "CPU_Min_Speed_MHz": "1200.0000",
                "BogoMIPS": "4788.19",
                "L2_cache": "256K",
                "L3_cache": "30720K",
                "NUMA_node0_CPUs": "0-11,24-35",
                "NUMA_node1_CPUs": "12-23,36-47",
                "Power_Policy": "powersave",
                "Power_Driver": "intel_pstate",
                "Microcode": "0x42e",
                "SMT_Enabled?": true
            },
            "BIOS": {
                "Vendor": "not_available",
                "Version": "not_available",
                "Release_data": "not_available"
            },
            "SYSTEM": {
                "Manufacturer": "not_available",
                "Product_Name": "not_available",
                "Version": "not_available",
                "Product_Serial": "not_available",
                "Product_Asset_Tag": "not_available"
            },
            "MEMORY": {
                "Mem_Total": "65703336",
                "Mem_Available": "62877224",
                "Mem_Swap": "32964604"
            },
            "STORAGE": {}
        }
    },
    "suite": {
        "version": "2.0.rc0",
        "flags": {
            "ncores": 48,
            "run_mode": "singularity"
        },
        "benchmark_version": {
            "db12": "v0.1",
            "hs06_32": "v1.0",
            "spec2017": "v1.0",
            "hs06_64": "v1.0",
            "hepscore": "v1.0rc8"
        }
    },
    "_id": "machineX_2020-08-31T09:20:21Z",
    "_timestamp": "2020-08-31T09:20:21Z",
    "_timestamp_end": "2020-08-31T09:20:21Z",
    "json_version": "v2.0-dev",
    "profiles": {
        "DB12": {
            "value": 20.81540544606589,
            "unit": "est. HS06"
        },
        "hepscore": {
            "app_info": {
                "name": "HEPscore19",
                "reference_machine": "CPU Intel(R) Xeon(R) CPU E5-2630 v3 @ 2.40GHz",
                "registry": "gitlab-registry.cern.ch/hep-benchmarks/hep-workloads",
                "hash": "60516267e124f8c165da87ad45152bc6f34a90fcc6b2db15e9d895ca771a3b3c",
                "hepscore_ver": "1.0.0.0rc4.dev2"
            },
            "settings": {
                "method": "geometric_mean",
                "repetitions": 3,
                "scaling": 355,
                "container_exec": "docker",
                "replay": false
            },
            "environment": {
                "date": "Tue Aug  4 10:36:13 2020",
                "system": "Linux test.example.com 3.10.0-862.14.4.el7.x86_64 #1 SMP Tue Sep 25 14:32:52 CDT 2018 x86_64",
                "docker_version": "Docker version 1.13.1, build b2f74b2/1.13.1"
            },
            "wl-scores": {
                "cms-digi-bmk": {
                    "digi_ref": 3.58,
                    "digi": 8.3154
                },
                "cms-reco-bmk": {
                    "reco_ref": 2.196,
                    "reco": 5.4116
                },
                "atlas-gen-bmk": {
                    "gen": 1025.0058,
                    "gen_ref": 384
                },
                "cms-gen-sim-bmk": {
                    "gen-sim_ref": 0.726,
                    "gen-sim": 1.6702
                },
                "lhcb-gen-sim-bmk": {
                    "gen-sim_ref": 90.29,
                    "gen-sim": 234.8757
                }
            },
            "score": 875.8939,
            "status": "success",
            "score_per_core": 13.686
        },
        "hs06_32": {
            "start": "Mon Sep 7 13:24:10 CEST 2020",
            "end": "Mon Sep 7 13:33:52 CEST 2020",
            "copies": 48,
            "runcpu_args": "1 runspec: runspec --config=linux32-gcc_cern.cfg --action=build 453.povray;48 runspec: runspec --config=linux32-gcc_cern.cfg --nobuild --noreportable --iterations=1 453.povray;",
            "bset": "453.povray",
            "LINK": "1 g++ -m32-O2 -fPIC -pthread <objects> -o options;",
            "score": 520.69,
            "avg_core_score": 10.84,
            "num_bmks": 1,
            "bmks": {
                "453.povray": [
                    10.5,
                    11.2,
                    11.1,
                    11.1,
                    11.2,
                    11.0,
                    10.5,
                    10.5,
                    11.2,
                    10.8,
                    10.5,
                    10.4,
                    10.5,
                    11.3,
                    10.5,
                    11.2,
                    11.1,
                    11.2,
                    11.2,
                    11.1,
                    11.1,
                    10.6,
                    10.6,
                    11.0,
                    11.2,
                    11.2,
                    11.2,
                    11.1,
                    11.1,
                    10.7,
                    10.7,
                    10.5,
                    10.5,
                    11.2,
                    11.2,
                    11.2,
                    10.6,
                    11.2,
                    10.5,
                    11.1,
                    10.5,
                    10.5,
                    10.5,
                    10.5,
                    10.5,
                    10.6,
                    10.5,
                    10.5
                ]
            }
        },
        "hs06_64": {
            "start": "Fri Sep 4 16:56:21 CEST 2020",
            "end": "Fri Sep 4 17:03:56 CEST 2020",
            "copies": 48,
            "runcpu_args": "1 runspec: runspec --config=linux64-gcc_cern.cfg --action=build 453.povray;48 runspec: runspec --config=linux64-gcc_cern.cfg --nobuild --noreportable --iterations=1 453.povray;",
            "bset": "453.povray",
            "LINK": "1 g++-O2 -fPIC -pthread -DSPEC_CPU_LP64 <objects> -o options;",
            "score": 684.89,
            "avg_core_score": 14.26,
            "num_bmks": 1,
            "bmks": {
                "453.povray": [
                    13.8,
                    14.0,
                    14.0,
                    13.9,
                    13.8,
                    14.7,
                    14.0,
                    14.6,
                    14.6,
                    14.5,
                    13.9,
                    14.4,
                    14.6,
                    14.6,
                    13.9,
                    14.6,
                    13.8,
                    14.0,
                    13.8,
                    14.6,
                    13.9,
                    14.0,
                    14.0,
                    14.5,
                    14.6,
                    14.0,
                    13.9,
                    14.6,
                    14.7,
                    14.7,
                    14.5,
                    14.5,
                    13.9,
                    14.5,
                    14.5,
                    14.1,
                    14.1,
                    14.7,
                    14.5,
                    14.6,
                    13.8,
                    14.0,
                    13.9,
                    14.4,
                    14.7,
                    14.6,
                    14.0,
                    14.6
                ]
            }
        },
        "spec2017": {
            "start": "Fri Sep 4 17:06:05 CEST 2020",
            "end": "Fri Sep 4 17:20:11 CEST 2020",
            "copies": 48,
            "compiler": " C/C++/Fortran: Version 6.2.0 of GCC, the GNU Compiler Collection ",
            "optimize": " -g -O3 -fPIC -pthread",
            "extra_coptimize": "",
            "runcpu_args": "8 /tmp/SPEC/SPEC2017/bin/harness/runcpu --configfile cern-gcc-linux-x86.cfg --nobuild --noreportable --iterations 1 --noreportable --nopower --runmode rate --tune base --size refrate 508.namd_r;",
            "bset": "508.namd_r",
            "score": 64.150,
            "avg_core_score": 1.336,
            "num_bmks": 1,
            "bmks": {
                "508.namd_r": [
                    1.38,
                    1.31,
                    1.30,
                    1.31,
                    1.31,
                    1.37,
                    1.37,
                    1.30,
                    1.38,
                    1.37,
                    1.30,
                    1.37,
                    1.37,
                    1.30,
                    1.37,
                    1.35,
                    1.37,
                    1.37,
                    1.30,
                    1.37,
                    1.30,
                    1.31,
                    1.30,
                    1.37,
                    1.36,
                    1.30,
                    1.30,
                    1.37,
                    1.37,
                    1.31,
                    1.37,
                    1.31,
                    1.37,
                    1.37,
                    1.30,
                    1.30,
                    1.30,
                    1.37,
                    1.30,
                    1.31,
                    1.37,
                    1.37,
                    1.30,
                    1.38,
                    1.31,
                    1.30,
                    1.37,
                    1.30
                ]
            }
        }
    }
}
