{
    "host": {
        "hostname": "olivb-21.cern.ch",
        "ip": "128.142.41.53",
        "UID": "not_defined",
        "tags": {
            "cloud": "Suite CI",
            "vo": "Some VM",
            "other_tag": "Some text"
        },
        "SW": {
            "python_version": "3.6.8",
            "os_version": "CentOS Linux release 7.8.2003 (Core)",
            "kernel_version": "3.10.0-1127.18.2.el7.x86_64",
            "gcc_version": "gcc (GCC) 4.8.5 20150623 (Red Hat 4.8.5-39)",
            "glibc_version": "2.17-307.el7.1"
        },
        "HW": {
            "CPU": {
                "Architecture": "x86_64",
                "CPU_Model": "Intel(R) Xeon(R) CPU E5-2695 v2 @ 2.40GHz",
                "CPU_Family": "6",
                "CPU": "48",
                "Online_CPUs_list": "0-47",
                "Threads_per_core": "2",
                "Cores_per_socket": "12",
                "Sockets": "2",
                "Vendor_ID": "GenuineIntel",
                "Stepping": "4",
                "CPU_Max_Speed_MHz": "3200.0000",
                "CPU_Min_Speed_MHz": "1200.0000",
                "BogoMIPS": "4788.19",
                "L2_cache": "256K",
                "L3_cache": "30720K",
                "NUMA_node0_CPUs": "0-11,24-35",
                "NUMA_node1_CPUs": "12-23,36-47",
                "Power_Policy": "powersave",
                "Power_Driver": "intel_pstate",
                "Microcode": "0x42e",
                "SMT_Enabled?": true
            },
            "BIOS": {
                "Vendor": "not_available",
                "Version": "not_available",
                "Release_data": "not_available"
            },
            "SYSTEM": {
                "Manufacturer": "not_available",
                "Product_Name": "not_available",
                "Version": "not_available",
                "Product_Serial": "not_available",
                "Product_Asset_Tag": "not_available"
            },
            "MEMORY": {
                "Mem_Total": "65703336",
                "Mem_Available": "62877224",
                "Mem_Swap": "32964604"
            },
            "STORAGE": {}
        }
    },
    "suite": {
        "version": "2.0.rc0",
        "flags": {
            "ncores": 48,
            "run_mode": "singularity"
        },
        "benchmark_version": {
            "hepscore": "v1.0rc8",
            "db12": "v0.1",
            "hs06_32": "v1.0",
            "spec2017": "v1.0",
            "hs06_64": "v1.0"
        }
    },
    "_id": "machineX_2020-08-31T09:20:21Z",
    "_timestamp": "2020-08-31T09:20:21Z",
    "_timestamp_end": "2020-08-31T09:20:21Z",
    "json_version": "v2.0-dev",
    "profiles": {
        "hepscore": {
            "benchmarks": {
                "atlas-gen-bmk": {
                    "version": "v1.2",
                    "args": {
                        "-t": 1,
                        "-e": 200
                    },
                    "run0": {
                        "duration": 1259.0,
                        "report": {
                            "wl-scores": {
                                "gen": 1016.7771
                            },
                            "wl-stats": {
                                "median": 15.8353,
                                "max": 18.5874,
                                "score": 1016.7771,
                                "avg": 15.8871,
                                "min": 12.3305
                            },
                            "log": "ok"
                        },
                        "start_at": "Tue Aug  4 10:36:13 2020",
                        "end_at": "Tue Aug  4 10:57:12 2020"
                    },
                    "run1": {
                        "duration": 1318.0,
                        "report": {
                            "wl-scores": {
                                "gen": 1055.0111
                            },
                            "wl-stats": {
                                "median": 16.5563,
                                "max": 17.6056,
                                "score": 1055.0111,
                                "avg": 16.4845,
                                "min": 14.7493
                            },
                            "log": "ok"
                        },
                        "start_at": "Tue Aug  4 10:57:12 2020",
                        "end_at": "Tue Aug  4 11:19:10 2020"
                    },
                    "run2": {
                        "duration": 1341.0,
                        "report": {
                            "wl-scores": {
                                "gen": 1025.0058
                            },
                            "wl-stats": {
                                "median": 16.9205,
                                "max": 18.5185,
                                "score": 1025.0058,
                                "avg": 16.0157,
                                "min": 9.7943
                            },
                            "log": "ok"
                        },
                        "start_at": "Tue Aug  4 11:19:10 2020",
                        "end_at": "Tue Aug  4 11:41:31 2020"
                    },
                    "app": {
                        "bmkdata_checksum": "b94489e16c0a77f2a0a9aaf333260a96",
                        "cvmfs_checksum": "c90254abb2e135987ac8402bcf8b16e4",
                        "version": "v1.2",
                        "bmk_checksum": "f13a7a7d746cc2f9ac03cd1ebcfc7642",
                        "description": "ATLAS Event Generation based on athena version 19.2.5.5"
                    },
                    "run_info": {
                        "events_per_thread": 200,
                        "copies": 64,
                        "threads_per_copy": 1
                    }
                },
                "cms-gen-sim-bmk": {
                    "version": "v1.2",
                    "args": {
                        "-t": 4,
                        "-e": 20
                    },
                    "run0": {
                        "duration": 787.0,
                        "report": {
                            "wl-scores": {
                                "gen-sim": 1.6931
                            },
                            "wl-stats": {
                                "CPU_score": {
                                    "max": 0.0282,
                                    "avg": 0.0276,
                                    "median": 0.0276,
                                    "min": 0.0273
                                },
                                "throughput_score": {
                                    "max": 0.1085,
                                    "avg": 0.1058,
                                    "median": 0.1056,
                                    "min": 0.1042
                                }
                            },
                            "log": "ok"
                        },
                        "start_at": "Tue Aug  4 11:41:31 2020",
                        "end_at": "Tue Aug  4 11:54:38 2020"
                    },
                    "run1": {
                        "duration": 793.0,
                        "report": {
                            "wl-scores": {
                                "gen-sim": 1.6702
                            },
                            "wl-stats": {
                                "CPU_score": {
                                    "max": 0.0276,
                                    "avg": 0.0271,
                                    "median": 0.0273,
                                    "min": 0.0264
                                },
                                "throughput_score": {
                                    "max": 0.1064,
                                    "avg": 0.1044,
                                    "median": 0.1045,
                                    "min": 0.1019
                                }
                            },
                            "log": "ok"
                        },
                        "start_at": "Tue Aug  4 11:54:38 2020",
                        "end_at": "Tue Aug  4 12:07:51 2020"
                    },
                    "run2": {
                        "duration": 805.0,
                        "report": {
                            "wl-scores": {
                                "gen-sim": 1.6624
                            },
                            "wl-stats": {
                                "CPU_score": {
                                    "max": 0.0277,
                                    "avg": 0.027,
                                    "median": 0.0271,
                                    "min": 0.0262
                                },
                                "throughput_score": {
                                    "max": 0.1071,
                                    "avg": 0.1039,
                                    "median": 0.1041,
                                    "min": 0.1004
                                }
                            },
                            "log": "ok"
                        },
                        "start_at": "Tue Aug  4 12:07:51 2020",
                        "end_at": "Tue Aug  4 12:21:16 2020"
                    },
                    "app": {
                        "bmkdata_checksum": "e57b3ad19144b7e9574b97056fb35d11",
                        "cvmfs_checksum": "46936775f3a0430ca78e14af7cab2346",
                        "version": "v1.2",
                        "bmk_checksum": "ca24fa5ce8efbc251d375d0339466a0b",
                        "description": "CMS GEN-SIM of ttbar events, based on CMSSW_10_2_9"
                    },
                    "run_info": {
                        "events_per_thread": 20,
                        "copies": 16,
                        "threads_per_copy": 4
                    }
                },
                "cms-digi-bmk": {
                    "version": "v1.3",
                    "args": {
                        "-t": 4,
                        "-e": 50
                    },
                    "run0": {
                        "duration": 516.0,
                        "report": {
                            "wl-scores": {
                                "digi": 8.2289
                            },
                            "wl-stats": {
                                "CPU_score": {
                                    "max": 0.138,
                                    "avg": 0.1345,
                                    "median": 0.1351,
                                    "min": 0.1298
                                },
                                "throughput_score": {
                                    "max": 0.5274,
                                    "avg": 0.5143,
                                    "median": 0.5169,
                                    "min": 0.4993
                                }
                            },
                            "log": "ok"
                        },
                        "start_at": "Tue Aug  4 12:21:16 2020",
                        "end_at": "Tue Aug  4 12:29:52 2020"
                    },
                    "run1": {
                        "duration": 505.0,
                        "report": {
                            "wl-scores": {
                                "digi": 8.3154
                            },
                            "wl-stats": {
                                "CPU_score": {
                                    "max": 0.1387,
                                    "avg": 0.1357,
                                    "median": 0.1367,
                                    "min": 0.1293
                                },
                                "throughput_score": {
                                    "max": 0.53,
                                    "avg": 0.5197,
                                    "median": 0.5228,
                                    "min": 0.4956
                                }
                            },
                            "log": "ok"
                        },
                        "start_at": "Tue Aug  4 12:29:52 2020",
                        "end_at": "Tue Aug  4 12:38:17 2020"
                    },
                    "run2": {
                        "duration": 489.0,
                        "report": {
                            "wl-scores": {
                                "digi": 8.5638
                            },
                            "wl-stats": {
                                "CPU_score": {
                                    "max": 0.1427,
                                    "avg": 0.1393,
                                    "median": 0.139,
                                    "min": 0.1373
                                },
                                "throughput_score": {
                                    "max": 0.5493,
                                    "avg": 0.5352,
                                    "median": 0.5332,
                                    "min": 0.5264
                                }
                            },
                            "log": "ok"
                        },
                        "start_at": "Tue Aug  4 12:38:17 2020",
                        "end_at": "Tue Aug  4 12:46:26 2020"
                    },
                    "app": {
                        "bmkdata_checksum": "279c1a7824048596f581a79e2bb9137d",
                        "cvmfs_checksum": "9114aa33d0d0a40da011c3f78f80e66c",
                        "version": "v1.3",
                        "bmk_checksum": "fd08748c37ef95e225f60fc48991e292",
                        "description": "CMS DIGI of ttbar events based on CMSSW_10_2_9"
                    },
                    "run_info": {
                        "events_per_thread": 50,
                        "copies": 16,
                        "threads_per_copy": 4
                    }
                },
                "cms-reco-bmk": {
                    "version": "v1.2",
                    "args": {
                        "-t": 4,
                        "-e": 50
                    },
                    "run0": {
                        "duration": 759.0,
                        "report": {
                            "wl-scores": {
                                "reco": 5.3346
                            },
                            "wl-stats": {
                                "CPU_score": {
                                    "max": 0.087,
                                    "avg": 0.0859,
                                    "median": 0.0861,
                                    "min": 0.0841
                                },
                                "throughput_score": {
                                    "max": 0.3373,
                                    "avg": 0.3334,
                                    "median": 0.3341,
                                    "min": 0.3265
                                }
                            },
                            "log": "ok"
                        },
                        "start_at": "Tue Aug  4 12:46:26 2020",
                        "end_at": "Tue Aug  4 12:59:05 2020"
                    },
                    "run1": {
                        "duration": 704.0,
                        "report": {
                            "wl-scores": {
                                "reco": 5.5555
                            },
                            "wl-stats": {
                                "CPU_score": {
                                    "max": 0.0901,
                                    "avg": 0.0889,
                                    "median": 0.0888,
                                    "min": 0.0883
                                },
                                "throughput_score": {
                                    "max": 0.3525,
                                    "avg": 0.3472,
                                    "median": 0.3467,
                                    "min": 0.344
                                }
                            },
                            "log": "ok"
                        },
                        "start_at": "Tue Aug  4 12:59:05 2020",
                        "end_at": "Tue Aug  4 13:10:49 2020"
                    },
                    "run2": {
                        "duration": 728.0,
                        "report": {
                            "wl-scores": {
                                "reco": 5.4116
                            },
                            "wl-stats": {
                                "CPU_score": {
                                    "max": 0.0876,
                                    "avg": 0.0866,
                                    "median": 0.0869,
                                    "min": 0.0845
                                },
                                "throughput_score": {
                                    "max": 0.343,
                                    "avg": 0.3382,
                                    "median": 0.3393,
                                    "min": 0.3305
                                }
                            },
                            "log": "ok"
                        },
                        "start_at": "Tue Aug  4 13:10:49 2020",
                        "end_at": "Tue Aug  4 13:22:57 2020"
                    },
                    "app": {
                        "bmkdata_checksum": "85537134eef4c02127b3b638bd6f766d",
                        "cvmfs_checksum": "9b18776b283a3d2942417e1daa545428",
                        "version": "v1.2",
                        "bmk_checksum": "f145a85e0025ef3392b8b79245ce8236",
                        "description": "CMS RECO of ttbar events, based on CMSSW_10_2_9"
                    },
                    "run_info": {
                        "events_per_thread": 50,
                        "copies": 16,
                        "threads_per_copy": 4
                    }
                },
                "lhcb-gen-sim-bmk": {
                    "version": "v0.15",
                    "args": {
                        "-t": 1,
                        "-e": 5
                    },
                    "run0": {
                        "duration": 1552.0,
                        "report": {
                            "wl-scores": {
                                "gen-sim": 233.9838,
                                "gen": 1181.3052,
                                "sim": 301.0783
                            },
                            "wl-stats": {
                                "gen-sim": {
                                    "max": 3.6871,
                                    "avg": 3.656,
                                    "median": 3.6539,
                                    "min": 3.6307
                                },
                                "gen": {
                                    "max": 18.6578,
                                    "avg": 18.4579,
                                    "median": 18.495,
                                    "min": 18.1075
                                },
                                "sim": {
                                    "max": 4.7601,
                                    "avg": 4.7043,
                                    "median": 4.6999,
                                    "min": 4.6693
                                }
                            },
                            "log": "ok"
                        },
                        "start_at": "Tue Aug  4 13:22:57 2020",
                        "end_at": "Tue Aug  4 13:48:49 2020"
                    },
                    "run1": {
                        "duration": 1542.0,
                        "report": {
                            "wl-scores": {
                                "gen-sim": 234.8757,
                                "gen": 1178.6426,
                                "sim": 302.2857
                            },
                            "wl-stats": {
                                "gen-sim": {
                                    "max": 3.7209,
                                    "avg": 3.6699,
                                    "median": 3.6668,
                                    "min": 3.6475
                                },
                                "gen": {
                                    "max": 18.646,
                                    "avg": 18.4163,
                                    "median": 18.4481,
                                    "min": 17.8437
                                },
                                "sim": {
                                    "max": 4.8074,
                                    "avg": 4.7232,
                                    "median": 4.7216,
                                    "min": 4.6827
                                }
                            },
                            "log": "ok"
                        },
                        "start_at": "Tue Aug  4 13:48:49 2020",
                        "end_at": "Tue Aug  4 14:14:31 2020"
                    },
                    "run2": {
                        "duration": 1548.0,
                        "report": {
                            "wl-scores": {
                                "gen-sim": 235.0311,
                                "gen": 1177.8267,
                                "sim": 302.6009
                            },
                            "wl-stats": {
                                "gen-sim": {
                                    "max": 3.7282,
                                    "avg": 3.6724,
                                    "median": 3.6705,
                                    "min": 3.6399
                                },
                                "gen": {
                                    "max": 18.6564,
                                    "avg": 18.4035,
                                    "median": 18.4495,
                                    "min": 17.7824
                                },
                                "sim": {
                                    "max": 4.8196,
                                    "avg": 4.7281,
                                    "median": 4.722,
                                    "min": 4.6842
                                }
                            },
                            "log": "ok"
                        },
                        "start_at": "Tue Aug  4 14:14:31 2020",
                        "end_at": "Tue Aug  4 14:40:19 2020"
                    },
                    "app": {
                        "bmkdata_checksum": "199a9d5cb218c303eafd74076bb7a3c0",
                        "cvmfs_checksum": "4bc7ad9884f1ef2ce37c98ca12a0af9d",
                        "version": "v0.15",
                        "bmk_checksum": "36a2922051d3a5d0189821352516d9b3",
                        "description": "LHCb GEN-SIM benchmark"
                    },
                    "run_info": {
                        "events_per_thread": 5,
                        "copies": 64,
                        "threads_per_copy": 1
                    }
                }
            },
            "app_info": {
                "name": "HEPscore19",
                "reference_machine": "CPU Intel(R) Xeon(R) CPU E5-2630 v3 @ 2.40GHz",
                "registry": "gitlab-registry.cern.ch/hep-benchmarks/hep-workloads",
                "hash": "60516267e124f8c165da87ad45152bc6f34a90fcc6b2db15e9d895ca771a3b3c",
                "hepscore_ver": "1.0.0.0rc4.dev2"
            },
            "settings": {
                "method": "geometric_mean",
                "repetitions": 3,
                "scaling": 355,
                "container_exec": "docker",
                "replay": false
            },
            "environment": {
                "date": "Tue Aug  4 10:36:13 2020",
                "system": "Linux test.example.com 3.10.0-862.14.4.el7.x86_64 #1 SMP Tue Sep 25 14:32:52 CDT 2018 x86_64",
                "docker_version": "Docker version 1.13.1, build b2f74b2/1.13.1"
            },
            "wl-scores": {
                "cms-digi-bmk": {
                    "digi_ref": 3.58,
                    "digi": 8.3154
                },
                "cms-reco-bmk": {
                    "reco_ref": 2.196,
                    "reco": 5.4116
                },
                "atlas-gen-bmk": {
                    "gen": 1025.0058,
                    "gen_ref": 384
                },
                "cms-gen-sim-bmk": {
                    "gen-sim_ref": 0.726,
                    "gen-sim": 1.6702
                },
                "lhcb-gen-sim-bmk": {
                    "gen-sim_ref": 90.29,
                    "gen-sim": 234.8757
                }
            },
            "score": 875.8939,
            "status": "success",
            "score_per_core": 13.686
        }
    }
}
